^W:\WORKSPACE\THIRD_PARTY\SDL\SDL2-2.0.7\VISUALC\SDLMAIN\WIN32\DEBUG\SDL_WINDOWS_MAIN.OBJ
C:\WINDOWS\GLOBALIZATION\SORTING\SORTDEFAULT.NLS
W:\WORKSPACE\THIRD_PARTY\SDL\SDL2-2.0.7\VISUALC\SDLMAIN\WIN32\DEBUG\SDL_WINDOWS_MAIN.OBJ
C:\WINDOWS\SYSTEM32\TZRES.DLL
